{
    "/js/app.js": "/js/app.js?id=d17372707e9278a16460",
    "/css/app.css": "/css/app.css?id=6e39449dbab49a393d03",
    "/js/vue/vueSecuritec.js": "/js/vue/vueSecuritec.js?id=6c906e802f68d3739e6e",
    "/css/securitec.css": "/css/securitec.css?id=ac4ae48c67783a98d314",
    "/js/plugins.js": "/js/plugins.js?id=eb1a98d408d525450655",
    "/js/helper.js": "/js/helper.js?id=309143359c2224f7e05f",
    "/css/adminlte.css": "/css/adminlte.css?id=005dfaca52c7f02be0bb",
    "/js/adminlte.js": "/js/adminlte.js?id=0a4c0a25ecf71ae6ad58",
    "/js/jquery.backstretch.js": "/js/jquery.backstretch.js?id=0b31f79fe686a12673aa",
    "/favicon.png": "/favicon.png?id=a4a93a83da859a8cd1dd",
    "/plugins/daterangepicker.js": "/plugins/daterangepicker.js?id=2bb3f09fd8a399707c07",
    "/plugins/daterangepicker.css": "/plugins/daterangepicker.css?id=85523b7dfefe61608547"
}